Tidy CDA
…
fct_anon allows users to convert factor labels to annotated numbers, in this case, we can convert Sex from Female/Male to 2/1 where the value 2 corresponds to females and 1 corresponds to males. In the second part of the code, we see the use of fct_collapse() which collapses the three categories of the ordered factor into two main categories. The use of `` allows users to specify special characters such as spaces.

Arthritis %>% mutate(Sex = Sex %>% fct_anon(),
                     Improved = Improved %>% fct_collapse(
                       `no Improvement` = 'None',
                       Improvement = c('Some', 'Marked')
                     ))

## # A tibble: 84 × 5
##       ID Treatment Sex     Age Improved      
##    <int> <fct>     <fct> <int> <ord>         
##  1    57 Treated   2        27 Improvement   
##  2    46 Treated   2        29 no Improvement
##  3    77 Treated   2        30 no Improvement
##  4    17 Treated   2        32 Improvement   
##  5    36 Treated   2        46 Improvement   
##  6    23 Treated   2        58 Improvement   
##  7    75 Treated   2        59 no Improvement
##  8    39 Treated   2        59 Improvement   
##  9    33 Treated   2        63 no Improvement
## 10    55 Treated   2        63 no Improvement
## # … with 74 more rows
…
